Alg; nS; nVM; nN; loadPercent; sol_nServer; sol_nMig; sol_nMsg;
GLO;100;3000;100;50.0;50;2974;300;
GLO;100;3000;100;55.0;55;2971;300;
GLO;100;3000;100;60.0;60;2968;300;
GLO;100;3000;100;65.0;65;2980;300;
GLO;100;3000;100;70.0;70;2972;300;
GLO;100;3000;100;75.0;75;2977;300;
GLO;100;3000;100;80.0;80;2975;300;
GLO;100;3000;100;85.0;85;2974;300;
GLO;100;3023;100;90.0;90;3002;300;
GLO;100;3176;100;95.0;95;3149;300;
BF;100;3000;5;50.0;96;199;220;
BF;100;3000;5;55.0;96;258;540;
BF;100;3000;5;60.0;98;93;100;
BF;100;3000;5;65.0;98;102;100;
BF;100;3000;5;70.0;98;95;100;
BF;100;3000;5;75.0;97;421;580;
BF;100;3000;25;50.0;81;1112;1200;
BF;100;3000;40;50.0;80;1172;800;
BF;100;3000;40;90.0;0;0;0;
BF;100;3023;40;90.0;93;2267;3200;
BF;100;3176;40;90.0;0;0;0;
BF;100;3176;40;95.0;97;2439;4800;
BF;100;3176;40;50.0;0;0;0;
BF;100;3176;40;55.0;0;0;0;
BF;100;3000;40;50.0;80;1172;800;
BF;100;3000;40;50.0;80;1172;800;
BF;100;3000;10;50.0;95;256;200;
BF;100;3000;10;50.0;95;256;200;
BF;100;3000;10;50.0;95;256;200;
BF;100;3000;10;50.0;95;256;200;
BF;100;3000;10;50.0;93;264;400;
BF;100;3000;10;55.0;91;582;1600;
BF;100;3000;10;50.0;95;256;200;
BF;100;3000;10;50.0;95;502;400;
BF;100;3000;10;55.0;91;582;1680;
BF;100;3000;10;50.0;95;256;200;
BF;100;3000;10;55.0;91;582;1600;
BF;100;3000;10;50.0;95;256;360;
BF;100;3000;10;55.0;91;578;1720;
BF;100;3000;10;50.0;95;256;200;
BF;100;3000;10;55.0;91;578;1680;
BF;100;3000;10;50.0;95;256;200;
BF;100;3000;10;50.0;95;256;200;
BF;100;3000;10;50.0;95;256;200;
BF;100;3000;10;55.0;91;578;1560;
BF;100;3000;10;60.0;96;259;200;
BF;100;3000;10;65.0;95;467;480;
BF;100;3000;10;70.0;97;253;200;
BF;100;3000;10;75.0;97;233;200;
